{
"type": "FeatureCollection",
"name": "home",
"crs": { "type": "name", "properties": { "name": "urn:ogc:def:crs:OGC:1.3:CRS84" } },
"features": [
{ "type": "Feature", "properties": { "x": 8.273765, "y": 49.999087, "z": 93.617691236769218 }, "geometry": { "type": "Point", "coordinates": [ 8.273765, 49.999087 ] } }
]
}
