{
"type": "FeatureCollection",
"name": "running",
"crs": { "type": "name", "properties": { "name": "urn:ogc:def:crs:OGC:1.3:CRS84" } },
"features": [
{ "type": "Feature", "properties": { "name": "Von Hoher Dom St. Martin nach Römisches Theater", "cmt": null, "desc": null, "src": null, "link1_href": null, "link1_text": null, "link1_type": null, "link2_href": null, "link2_text": null, "link2_type": null, "number": null, "type": null }, "geometry": { "type": "MultiLineString", "coordinates": [ [ [ 8.273765, 49.999087, 95.725933884307238 ], [ 8.273761, 49.999098, 95.725933884307238 ], [ 8.273698, 49.999282, 95.725933884307238 ], [ 8.273559, 49.999537, 95.725933884307238 ], [ 8.273199, 49.999409, 95.725933884307238 ], [ 8.273091, 49.999385, 95.725933884307238 ], [ 8.273004, 49.999387, 95.725933884307238 ], [ 8.273086, 49.999251, 95.708878447209614 ], [ 8.272377, 49.999073, 95.633220935860479 ], [ 8.272461, 49.998957, 95.613435486022837 ], [ 8.272483, 49.998926, 95.608166642219629 ], [ 8.272856, 49.99843, 95.522977550136588 ], [ 8.272869, 49.998403, 95.518607067622767 ], [ 8.272982, 49.998381, 95.506871057431042 ], [ 8.272978, 49.998338, 95.500209966799062 ], [ 8.273153, 49.998083, 95.457112184267388 ], [ 8.273186, 49.998083, 95.453831982218944 ], [ 8.273222, 49.998083, 95.45025357998432 ], [ 8.273393, 49.998113, 95.443022643135663 ], [ 8.273434, 49.99811, 95.441729706889717 ], [ 8.273438, 49.99809, 95.440746821392224 ], [ 8.273552, 49.997749, 95.423745949158544 ], [ 8.273539, 49.997708, 95.42170639337634 ], [ 8.273622, 49.997614, 95.416437932121923 ], [ 8.273652, 49.997587, 95.414820648376633 ], [ 8.273765, 49.99749, 95.408913799894108 ], [ 8.274236, 49.997189, 95.388103833436787 ], [ 8.274402, 49.997096, 95.38120434578309 ], [ 8.274912, 49.996787, 95.395183327152438 ], [ 8.275027, 49.996706, 95.606145877489695 ], [ 8.275185, 49.996599, 95.889953375301076 ], [ 8.275904, 49.996167, 97.107012480749987 ], [ 8.275621, 49.99597, 97.622864640556813 ], [ 8.275474, 49.995872, 97.884759851003409 ], [ 8.275464, 49.995865, 97.903042881158399 ], [ 8.275395, 49.995817, 98.028771357871662 ], [ 8.275321, 49.995773, 98.153427915684787 ], [ 8.275167, 49.995688, 98.404441024206932 ], [ 8.275161, 49.995593, 98.587346282580299 ], [ 8.275143, 49.995512, 98.744750648719133 ], [ 8.27513, 49.995443, 98.961890113988474 ], [ 8.275211, 49.995442, 99.205666243650185 ], [ 8.275122, 49.995375, 99.618062956345383 ], [ 8.275085, 49.99536, 99.749687279919357 ], [ 8.275111, 49.99528, 100.13223435923905 ], [ 8.275196, 49.995179, 100.669744845468728 ], [ 8.275199, 49.995123, 100.932023433136678 ], [ 8.27513, 49.995086, 101.20239748746053 ], [ 8.275097, 49.995069, 101.329645674384494 ], [ 8.274799, 49.994912, 102.489006870131448 ], [ 8.274738, 49.99488, 102.725918365993749 ], [ 8.274742, 49.994827, 102.974291057872151 ], [ 8.275108, 49.994385, 105.318062260365849 ], [ 8.275151, 49.994173, 106.318786032641825 ], [ 8.275159, 49.994067, 106.815531434193232 ], [ 8.275305, 49.993825, 107.660453308975292 ], [ 8.275406, 49.993723, 107.961724466455763 ], [ 8.275544, 49.993655, 108.240238020851507 ], [ 8.276456, 49.993414, 109.819690473406951 ], [ 8.27703, 49.993175, 110.915135647031093 ], [ 8.277429, 49.993037, 111.640887173910883 ], [ 8.277504, 49.993011, 111.780120328420807 ], [ 8.277944, 49.992873, 112.602375467732074 ], [ 8.278063, 49.992803, 112.873282565387839 ], [ 8.27811, 49.992768, 112.994081425628963 ], [ 8.277941, 49.992685, 113.351275227282102 ], [ 8.278069, 49.992586, 113.687597563031673 ], [ 8.277921, 49.99244, 114.142875373360283 ], [ 8.277946, 49.992374, 114.320341208466147 ], [ 8.277545, 49.992195, 115.140281679040143 ], [ 8.277427, 49.992257, 115.396241794272001 ], [ 8.277199, 49.992416, 115.961215144627758 ], [ 8.277127, 49.992467, 116.141149487986198 ], [ 8.276321, 49.992016, 117.988993763383675 ], [ 8.275858, 49.991939, 118.820407549013481 ], [ 8.275732, 49.991905, 119.057969673839452 ], [ 8.275668, 49.991849, 119.245882655268815 ], [ 8.275234, 49.991392, 120.693803852998386 ], [ 8.274354, 49.9908, 121.877534050660898 ], [ 8.274226, 49.990737, 121.979988683909767 ], [ 8.27398, 49.990669, 122.15017630906334 ], [ 8.273878, 49.99066, 122.215611565199225 ], [ 8.273642, 49.990656, 122.365656898864444 ], [ 8.273497, 49.99065, 122.458004441904151 ], [ 8.273398, 49.990628, 122.524578014062186 ], [ 8.273108, 49.990785, 122.765534964861459 ], [ 8.272771, 49.990921, 123.018419457509182 ], [ 8.272608, 49.990672, 123.244739783040771 ], [ 8.272282, 49.990766, 123.430463950007308 ], [ 8.271878, 49.990965, 123.69502254067072 ], [ 8.271406, 49.991145, 123.980292796099533 ], [ 8.270906, 49.991271, 124.259452878216479 ], [ 8.270283, 49.991414, 124.61275683404557 ], [ 8.270069, 49.991469, 124.745510251490828 ], [ 8.269188, 49.991593, 125.265002851369104 ], [ 8.268759, 49.991729, 125.540524430789233 ], [ 8.268622, 49.991814, 125.650194049964043 ], [ 8.268511, 49.991879, 125.736679361671051 ], [ 8.267688, 49.99207, 126.132894151572586 ], [ 8.267354, 49.9922, 126.143514808161356 ], [ 8.266924, 49.992369, 126.157224027218945 ], [ 8.266775, 49.992346, 126.161392240102657 ], [ 8.266625, 49.992397, 126.166007931330554 ], [ 8.266504, 49.992449, 126.169966965351591 ], [ 8.266448, 49.992456, 126.17151877118873 ], [ 8.266428, 49.992525, 126.174488502893496 ], [ 8.266389, 49.992524, 126.175550199900755 ], [ 8.266336, 49.992521, 126.176997449984142 ], [ 8.266281, 49.992517, 126.178503068267133 ], [ 8.266237, 49.992515, 126.179702916747758 ], [ 8.266181, 49.99251, 126.18124081458852 ], [ 8.266097, 49.992501, 126.183557245458985 ], [ 8.266051, 49.992592, 126.187605782048706 ], [ 8.266016, 49.992646, 126.190081006558927 ], [ 8.265843, 49.992602, 126.195141710440495 ], [ 8.265751, 49.992728, 126.201031063266072 ], [ 8.265541, 49.992866, 126.235981101304361 ], [ 8.265236, 49.992991, 126.293340391472412 ], [ 8.265055, 49.993079, 126.329327252648895 ], [ 8.264508, 49.993257, 126.426549650770326 ], [ 8.26435, 49.993499, 126.49128901630877 ], [ 8.264205, 49.993636, 126.532163734408968 ], [ 8.264136, 49.993679, 126.547402812998499 ], [ 8.263992, 49.99373, 126.573474003456511 ], [ 8.263108, 49.993851, 126.496722688352165 ], [ 8.263002, 49.99392, 126.444864267312695 ], [ 8.262948, 49.994025, 126.385726632445227 ], [ 8.262904, 49.994185, 126.298840320566327 ], [ 8.263117, 49.994256, 126.21635933610645 ], [ 8.263165, 49.99426, 126.199720319910696 ], [ 8.263197, 49.994263, 126.188603323367076 ], [ 8.263396, 49.994279, 126.119660159884873 ], [ 8.263436, 49.994282, 126.105816105224051 ], [ 8.264425, 49.994379, 125.761894081143453 ], [ 8.264897, 49.994438, 125.296440585091176 ], [ 8.26544, 49.994509, 124.462883342866235 ], [ 8.265638, 49.994424, 124.104726774600323 ], [ 8.266114, 49.994916, 122.748938993656864 ], [ 8.26654, 49.995395, 121.432167490917593 ], [ 8.266713, 49.995591, 120.187468573843987 ], [ 8.266842, 49.995876, 118.54804062200914 ], [ 8.266999, 49.996193, 116.71055218286935 ], [ 8.267383, 49.996203, 115.346003996283386 ], [ 8.267657, 49.996206, 114.372998994220836 ], [ 8.267677, 49.996313, 113.777753396170198 ], [ 8.267693, 49.996372, 113.446963170717382 ], [ 8.267734, 49.996362, 113.291263141361227 ], [ 8.267761, 49.996435, 112.876821295260953 ], [ 8.267772, 49.99646, 112.733321206190524 ], [ 8.267783, 49.996484, 112.595127751032564 ], [ 8.268173, 49.997097, 108.527914901311675 ], [ 8.268131, 49.997284, 107.320423210765753 ], [ 8.267961, 49.997532, 105.588427012207347 ], [ 8.267939, 49.997572, 105.317283884804922 ], [ 8.267982, 49.997584, 105.12470221145918 ], [ 8.268186, 49.997721, 103.912695166106843 ], [ 8.268439, 49.997805, 102.742871779299662 ], [ 8.268448, 49.997805, 102.705898115925905 ], [ 8.268478, 49.99786, 102.333417643622667 ], [ 8.268527, 49.997885, 102.076417007605755 ], [ 8.268492, 49.997898, 101.910353576960532 ], [ 8.268436, 49.997936, 101.575831633611429 ], [ 8.268451, 49.997956, 101.433934374647563 ], [ 8.268413, 49.998039, 100.880994189089577 ], [ 8.269302, 49.998296, 98.642121734630251 ], [ 8.269423, 49.998343, 98.384741973074767 ], [ 8.269572, 49.998387, 98.086227215157905 ], [ 8.270124, 49.99855, 96.980330093032904 ], [ 8.270724, 49.998727, 95.778477038893996 ], [ 8.271044, 49.998822, 95.136779605530904 ], [ 8.271932, 49.999088, 94.953202229317824 ], [ 8.271983, 49.999103, 94.953202229317824 ], [ 8.272259, 49.999185, 94.953202229317824 ], [ 8.272379, 49.999226, 94.953202229317824 ], [ 8.272576, 49.999281, 94.953202229317824 ], [ 8.27264, 49.999367, 94.953202229317824 ], [ 8.272742, 49.999395, 94.953202229317824 ], [ 8.273004, 49.999387, 94.953202229317824 ], [ 8.273091, 49.999385, 94.953202229317824 ], [ 8.273199, 49.999409, 94.953202229317824 ], [ 8.273559, 49.999537, 94.953202229317824 ], [ 8.273698, 49.999282, 94.953202229317824 ], [ 8.273761, 49.999098, 94.953202229317824 ], [ 8.273765, 49.999087, 94.953202229317824 ] ] ] } }
]
}
